#FIG 3.2  Produced by xfig version 3.2.5b
Landscape
Center
Inches
Letter  
100.00
Single
-2
1200 2
6 1125 900 2025 1500
4 0 4 50 -1 -1 14 0.0000 4 225 810 1125 1125 R\366ntgen\001
4 0 4 50 -1 -1 14 0.0000 4 225 870 1125 1410 strahlung\001
-6
2 4 0 1 0 7 50 -1 -1 0.000 0 0 7 0 0 5
	 975 2400 0 2400 0 600 975 600 975 2400
2 1 0 1 0 7 50 -1 -1 4.000 0 0 -1 0 0 5
	 300 750 600 750 600 975 300 1275 300 750
2 1 0 1 0 7 50 -1 -1 4.000 0 0 -1 0 0 10
	 150 2625 150 2175 300 2325 300 2175 450 2325 450 2175
	 600 2325 600 2175 750 2325 750 2625
2 1 0 1 0 7 50 -1 -1 4.000 0 0 -1 1 0 4
	5 1 1.00 30.00 45.00
	 450 750 450 450 -300 450 -300 1350
2 1 0 1 0 7 50 -1 -1 4.000 0 0 -1 0 0 3
	 675 2850 750 2850 750 2625
2 1 0 1 0 7 50 -1 -1 4.000 0 0 -1 1 0 2
	5 1 1.00 30.00 45.00
	 675 2850 600 2850
2 1 0 1 0 7 50 -1 -1 4.000 0 0 -1 1 1 3
	5 1 1.00 30.00 45.00
	5 1 1.00 30.00 45.00
	 300 2850 -300 2850 -300 1725
2 1 0 1 0 7 50 -1 -1 4.000 0 0 -1 0 0 2
	 150 2625 150 2850
2 1 0 1 2 7 50 -1 -1 4.000 0 0 -1 1 0 2
	1 1 1.00 30.00 45.00
	 450 2100 450 1725
2 1 1 1 4 7 50 -1 -1 4.000 0 0 -1 1 0 2
	1 1 1.00 30.00 45.00
	 525 1125 1200 825
2 1 1 1 4 7 50 -1 -1 4.000 0 0 -1 1 0 2
	1 1 1.00 30.00 45.00
	 525 1200 1200 1200
2 1 1 1 4 7 50 -1 -1 4.000 0 0 -1 1 0 2
	1 1 1.00 30.00 45.00
	 531 1261 1206 1561
4 0 2 50 -1 -1 14 0.0000 4 105 180 600 1800 e-\001
4 0 0 50 -1 -1 14 0.0000 4 225 1110 -75 3075 U_Heizung\001
4 0 0 50 -1 -1 14 0.0000 4 165 180 375 975 A\001
4 0 0 50 -1 -1 14 0.0000 4 165 180 750 2175 K\001
4 0 0 50 -1 -1 14 0.0000 4 195 660 -675 1575 U_AK\001
